{
  "mozsearch_path": "$MOZSEARCH_PATH",

  "default_tree": "webkit",

  "trees": {
    "webkit": {
      "index_path": "$WORKING/webkit",
      "files_path": "$WORKING/webkit/git",
      "git_path": "$WORKING/webkit/git",
      "git_blame_path": "$WORKING/webkit/blame",
      "github_repo": "https://github.com/WebKit/webkit",
      "objdir_path": "$WORKING/webkit/objdir",
      "codesearch_path": "$WORKING/webkit/livegrep.idx",
      "codesearch_port": 8081,
      "priority": 0,
      "on_error": "continue",
      "cache": "codesearch"
    }
  }
}
